<?xml version="1.0" encoding="UTF-8" standalone="no"?>
<!-- Created with Inkscape (http://www.inkscape.org/) -->

<svg version="1.1" id="svg2" xml:space="preserve" width="108pt" height="108pt" viewBox="0 0 144 144"
    sodipodi:docname="trackbook-app-icon-current.svg" inkscape:version="1.3 (0e150ed6c4, 2023-07-21)"
    inkscape:export-filename="trackbook-app-icon-current-foreground.png" inkscape:export-xdpi="600"
    inkscape:export-ydpi="600" xmlns:inkscape="http://www.inkscape.org/namespaces/inkscape"
    xmlns:sodipodi="http://sodipodi.sourceforge.net/DTD/sodipodi-0.dtd" xmlns:xlink="http://www.w3.org/1999/xlink"
    xmlns="http://www.w3.org/2000/svg" xmlns:rdf="http://www.w3.org/1999/02/22-rdf-syntax-ns#"
    xmlns:cc="http://creativecommons.org/ns#" xmlns:dc="http://purl.org/dc/elements/1.1/"><metadata
     id="metadata8"><rdf:RDF><cc:Work
         rdf:about=""><dc:format>image/svg+xml</dc:format><dc:type
           rdf:resource="http://purl.org/dc/dcmitype/StillImage" /></cc:Work></rdf:RDF></metadata><defs
     id="defs6"><linearGradient
       id="linearGradient4834"
       spreadMethod="pad"
       gradientTransform="matrix(175.93974,101.57886,101.57886,-175.93974,200.76953,191.61621)"
       gradientUnits="userSpaceOnUse"
       y2="0"
       x2="1"
       y1="0"
       x1="0"><stop
         id="stop4824"
         offset="0"
         style="stop-opacity:1;stop-color:#d2d6da" /><stop
         id="stop4826"
         offset="0.10391609"
         style="stop-opacity:1;stop-color:#bdc1c6" /><stop
         id="stop4828"
         offset="0.5"
         style="stop-opacity:1;stop-color:#5f6368" /><stop
         id="stop4830"
         offset="0.88514781"
         style="stop-opacity:1;stop-color:#bdc1c6" /><stop
         id="stop4832"
         offset="1"
         style="stop-opacity:1;stop-color:#d2d6da" /></linearGradient><linearGradient
       id="linearGradient252"
       spreadMethod="pad"
       gradientTransform="matrix(175.93974,101.57886,101.57886,-175.93974,200.76953,191.61621)"
       gradientUnits="userSpaceOnUse"
       y2="0"
       x2="1"
       y1="0"
       x1="0"><stop
         id="stop4813"
         offset="0"
         style="stop-opacity:1;stop-color:#ffffff" /><stop
         id="stop4815"
         offset="0.46555298"
         style="stop-opacity:0.32999161;stop-color:#ffffff" /><stop
         id="stop4817"
         offset="0.490488"
         style="stop-opacity:0.32999161;stop-color:#ffffff" /><stop
         id="stop4819"
         offset="0.84874926"
         style="stop-opacity:1;stop-color:#ffffff" /><stop
         id="stop4821"
         offset="1"
         style="stop-opacity:1;stop-color:#ffffff" /></linearGradient><linearGradient
       id="linearGradient276"
       spreadMethod="pad"
       gradientTransform="matrix(175.93974,101.57886,101.57886,-175.93974,200.76953,191.61621)"
       gradientUnits="userSpaceOnUse"
       y2="0"
       x2="1"
       y1="0"
       x1="0"><stop
         id="stop4800"
         offset="0"
         style="stop-opacity:1;stop-color:#424242" /><stop
         id="stop4802"
         offset="0.46555298"
         style="stop-opacity:1;stop-color:#000000" /><stop
         id="stop4804"
         offset="0.490488"
         style="stop-opacity:1;stop-color:#000000" /><stop
         id="stop4806"
         offset="0.84874926"
         style="stop-opacity:1;stop-color:#ffffff" /><stop
         id="stop4808"
         offset="1"
         style="stop-opacity:1;stop-color:#ffffff" /></linearGradient><clipPath
       clipPathUnits="userSpaceOnUse"
       id="clipPath18"><path
         d="M 0,512 H 512 V 0 H 0 Z"
         id="path16"
         inkscape:connector-curvature="0" /></clipPath><clipPath
       clipPathUnits="userSpaceOnUse"
       id="clipPath82"><path
         d="M 0,512 H 512 V 0 H 0 Z"
         id="path80"
         inkscape:connector-curvature="0" /></clipPath><clipPath
       clipPathUnits="userSpaceOnUse"
       id="clipPath94"><path
         d="M 0,512 H 512 V 0 H 0 Z"
         id="path92"
         inkscape:connector-curvature="0" /></clipPath><clipPath
       clipPathUnits="userSpaceOnUse"
       id="clipPath106"><path
         d="M 256,419.186 H 472.5 V 92.0303 H 256 Z"
         id="path104"
         inkscape:connector-curvature="0" /></clipPath><clipPath
       clipPathUnits="userSpaceOnUse"
       id="clipPath110"><path
         d="m 379.164,92.03 v 0 h 70.243 c 12.753,0 23.093,10.339 23.093,23.095 v 280.968 c 0,12.754 -10.34,23.093 -23.093,23.093 H 379.164 279.093 256 V 396.093 115.125 92.03 Z"
         id="path108"
         inkscape:connector-curvature="0" /></clipPath><linearGradient
       x1="0"
       y1="0"
       x2="1"
       y2="0"
       gradientUnits="userSpaceOnUse"
       gradientTransform="matrix(216.5,0,0,-216.5,256,255.6084)"
       spreadMethod="pad"
       id="linearGradient118"><stop
         style="stop-opacity:1;stop-color:#000000"
         offset="0"
         id="stop112" /><stop
         style="stop-opacity:1;stop-color:#000000"
         offset="0.25"
         id="stop114" /><stop
         style="stop-opacity:1;stop-color:#ffffff"
         offset="1"
         id="stop116" /></linearGradient><clipPath
       clipPathUnits="userSpaceOnUse"
       id="clipPath140"><path
         d="M 0,512 H 512 V 0 H 0 Z"
         id="path138"
         inkscape:connector-curvature="0" /></clipPath><clipPath
       clipPathUnits="userSpaceOnUse"
       id="clipPath152"><path
         d="M 39.5,419.187 H 256 V 92.0303 H 39.5 Z"
         id="path150"
         inkscape:connector-curvature="0" /></clipPath><clipPath
       clipPathUnits="userSpaceOnUse"
       id="clipPath156"><path
         d="m 132.836,419.187 v -0.001 H 62.593 C 49.838,419.186 39.5,408.847 39.5,396.093 V 115.125 C 39.5,102.369 49.838,92.03 62.593,92.03 H 132.836 232.906 256 v 23.095 280.968 23.094 z"
         id="path154"
         inkscape:connector-curvature="0" /></clipPath><linearGradient
       x1="0"
       y1="0"
       x2="1"
       y2="0"
       gradientUnits="userSpaceOnUse"
       gradientTransform="matrix(216.5,0,0,-216.5,39.5,255.6084)"
       spreadMethod="pad"
       id="linearGradient164"><stop
         style="stop-opacity:1;stop-color:#ffffff"
         offset="0"
         id="stop158" /><stop
         style="stop-opacity:1;stop-color:#000000"
         offset="0.75"
         id="stop160" /><stop
         style="stop-opacity:1;stop-color:#000000"
         offset="1"
         id="stop162" /></linearGradient><clipPath
       clipPathUnits="userSpaceOnUse"
       id="clipPath196"><path
         d="M 0,512 H 512 V 0 H 0 Z"
         id="path194"
         inkscape:connector-curvature="0" /></clipPath><clipPath
       clipPathUnits="userSpaceOnUse"
       id="clipPath232"><path
         d="M 256,423.11 H 456.142 V 95.9551 H 256 Z"
         id="path230"
         inkscape:connector-curvature="0" /></clipPath><clipPath
       clipPathUnits="userSpaceOnUse"
       id="clipPath236"><path
         d="m 369.858,116.758 v 0 l 64.936,11.861 c 11.79,2.154 21.348,14.24 21.348,26.995 L 434.192,184.95 256,423.11 V 400.018 119.049 95.955 Z"
         id="path234"
         inkscape:connector-curvature="0" /></clipPath><clipPath
       clipPathUnits="userSpaceOnUse"
       id="clipPath240"><path
         d="M -32768,32767 H 32767 V -32768 H -32768 Z"
         id="path238"
         inkscape:connector-curvature="0" /></clipPath><linearGradient
       x1="0"
       y1="0"
       x2="1"
       y2="0"
       gradientUnits="userSpaceOnUse"
       gradientTransform="matrix(175.93974,101.57886,101.57886,-175.93974,200.76953,191.61621)"
       spreadMethod="pad"
       id="linearGradient252-9"><stop
         style="stop-opacity:1;stop-color:#ffffff"
         offset="0"
         id="stop242" /><stop
         style="stop-opacity:0.32999161;stop-color:#ffffff"
         offset="0.46555298"
         id="stop244" /><stop
         style="stop-opacity:0.32999161;stop-color:#ffffff"
         offset="0.490488"
         id="stop246" /><stop
         style="stop-opacity:1;stop-color:#ffffff"
         offset="0.84874926"
         id="stop248" /><stop
         style="stop-opacity:1;stop-color:#ffffff"
         offset="1"
         id="stop250" /></linearGradient><mask
       maskUnits="userSpaceOnUse"
       x="0"
       y="0"
       width="1"
       height="1"
       id="mask254"><g
         id="g264"><g
           clip-path="url(#clipPath240)"
           id="g262"><g
             id="g260"><g
               id="g258"><path
                 d="M -32768,32767 H 32767 V -32768 H -32768 Z"
                 style="fill:url(#linearGradient252-9);stroke:none"
                 id="path256"
                 inkscape:connector-curvature="0" /></g></g></g></g></mask><linearGradient
       x1="0"
       y1="0"
       x2="1"
       y2="0"
       gradientUnits="userSpaceOnUse"
       gradientTransform="matrix(175.93974,101.57886,101.57886,-175.93974,200.76953,191.61621)"
       spreadMethod="pad"
       id="linearGradient276-1"><stop
         style="stop-opacity:1;stop-color:#bdc1c6"
         offset="0"
         id="stop266" /><stop
         style="stop-opacity:1;stop-color:#d2d6da"
         offset="1"
         id="stop274" /></linearGradient><clipPath
       clipPathUnits="userSpaceOnUse"
       id="clipPath302"><path
         d="M 0,512 H 512 V 0 H 0 Z"
         id="path300"
         inkscape:connector-curvature="0" /></clipPath><clipPath
       clipPathUnits="userSpaceOnUse"
       id="clipPath334"><path
         d="M 55.8579,456.105 H 256 V 95.9551 H 55.8579 Z"
         id="path332"
         inkscape:connector-curvature="0" /></clipPath><clipPath
       clipPathUnits="userSpaceOnUse"
       id="clipPath338"><path
         d="m 142.142,443.913 v -0.001 L 77.207,455.775 C 65.416,457.929 55.858,449.336 55.858,436.582 V 155.614 c 0,-12.755 9.558,-24.841 21.349,-26.995 L 142.142,116.758 234.652,99.857 256,95.955 v 23.094 280.969 23.093 z"
         id="path336"
         inkscape:connector-curvature="0" /></clipPath><linearGradient
       x1="0"
       y1="0"
       x2="1"
       y2="0"
       gradientUnits="userSpaceOnUse"
       gradientTransform="matrix(200.14209,0,0,-200.14209,55.85791,276.03027)"
       spreadMethod="pad"
       id="linearGradient346"><stop
         style="stop-opacity:1;stop-color:#ffffff"
         offset="0"
         id="stop340" /><stop
         style="stop-opacity:1;stop-color:#1a1a1a"
         offset="0.67684186"
         id="stop342" /><stop
         style="stop-opacity:1;stop-color:#1a1a1a"
         offset="1"
         id="stop344" /></linearGradient><clipPath
       clipPathUnits="userSpaceOnUse"
       id="clipPath368"><path
         d="M 0,512 H 512 V 0 H 0 Z"
         id="path366"
         inkscape:connector-curvature="0" /></clipPath><clipPath
       clipPathUnits="userSpaceOnUse"
       id="clipPath376"><path
         d="m 260,442 h 75 V 31 h -75 z"
         id="path374"
         inkscape:connector-curvature="0" /></clipPath><clipPath
       clipPathUnits="userSpaceOnUse"
       id="clipPath380"><path
         d="m 259,443 h 77 V 30 h -77 z"
         id="path378"
         inkscape:connector-curvature="0" /></clipPath><mask
       maskUnits="userSpaceOnUse"
       x="0"
       y="0"
       width="1"
       height="1"
       id="mask382"><g
         id="g400"><g
           clip-path="url(#clipPath376)"
           id="g398"><g
             id="g396"><g
               id="g384" /><g
               id="g394"><g
                 clip-path="url(#clipPath380)"
                 id="g392"><g
                   id="g390"><g
                     transform="matrix(75,0,0,411,260,31)"
                     id="g388"><image
                       xlink:href="app-icon-5_img0.png"
                       id="image386"
                       transform="matrix(1,0,0,-1,0,1)"
                       preserveAspectRatio="none"
                       style="image-rendering:optimizeSpeed"
                       height="1"
                       width="1" /></g></g></g></g></g></g></g></mask><clipPath
       clipPathUnits="userSpaceOnUse"
       id="clipPath408"><path
         d="m 262.198,439.809 h 70.663 V 33 h -70.663 z"
         id="path406"
         inkscape:connector-curvature="0" /></clipPath><clipPath
       clipPathUnits="userSpaceOnUse"
       id="clipPath428"><path
         d="M 0,512 H 512 V 0 H 0 Z"
         id="path426"
         inkscape:connector-curvature="0" /></clipPath><clipPath
       clipPathUnits="userSpaceOnUse"
       id="clipPath436"><path
         d="M -10.9321,471.598 H 522.924 V 40.4072 H -10.9321 Z"
         id="path434"
         inkscape:connector-curvature="0" /></clipPath><clipPath
       clipPathUnits="userSpaceOnUse"
       id="clipPath454"><path
         d="M 0,471.598 H 512 V 40.407 H 0 Z"
         id="path452"
         inkscape:connector-curvature="0" /></clipPath><filter
       style="color-interpolation-filters:sRGB"
       inkscape:label="Drop Shadow"
       id="filter1958"><feFlood
         flood-opacity="1"
         flood-color="rgb(23,24,26)"
         result="flood"
         id="feFlood1948" /><feComposite
         in="SourceGraphic"
         in2="flood"
         operator="in"
         result="composite1"
         id="feComposite1950" /><feGaussianBlur
         in="composite1"
         stdDeviation="7"
         result="blur"
         id="feGaussianBlur1952" /><feOffset
         dx="0"
         dy="4"
         result="offset"
         id="feOffset1954" /><feComposite
         in="SourceGraphic"
         in2="offset"
         operator="over"
         result="composite2"
         id="feComposite1956" /></filter><filter
       style="color-interpolation-filters:sRGB"
       inkscape:label="Drop Shadow"
       id="filter1825"
       x="-0.075000003"
       y="-0.096000001"
       width="1.15"
       height="1.232"><feFlood
         flood-opacity="0.498039"
         flood-color="rgb(0,0,0)"
         result="flood"
         id="feFlood1815" /><feComposite
         in="SourceGraphic"
         in2="flood"
         operator="in"
         result="composite1"
         id="feComposite1817" /><feGaussianBlur
         in="composite1"
         stdDeviation="2"
         result="blur"
         id="feGaussianBlur1819" /><feOffset
         dx="0"
         dy="2"
         result="offset"
         id="feOffset1821" /><feComposite
         in="SourceGraphic"
         in2="offset"
         operator="over"
         result="composite2"
         id="feComposite1823" /></filter><filter
       style="color-interpolation-filters:sRGB"
       inkscape:label="Drop Shadow"
       id="filter1262"
       x="-0.088735066"
       y="-0.14027284"
       width="1.1774701"
       height="1.238897"><feFlood
         flood-opacity="1"
         flood-color="rgb(65,65,65)"
         result="flood"
         id="feFlood1252" /><feComposite
         in="flood"
         in2="SourceGraphic"
         operator="in"
         result="composite1"
         id="feComposite1254" /><feGaussianBlur
         in="composite1"
         stdDeviation="14.8"
         result="blur"
         id="feGaussianBlur1256" /><feOffset
         dx="0"
         dy="-15"
         result="offset"
         id="feOffset1258" /><feComposite
         in="SourceGraphic"
         in2="offset"
         operator="over"
         result="composite2"
         id="feComposite1260" /></filter></defs><sodipodi:namedview
     pagecolor="#ffffff"
     bordercolor="#666666"
     borderopacity="1"
     objecttolerance="10"
     gridtolerance="10"
     guidetolerance="10"
     inkscape:pageopacity="0"
     inkscape:pageshadow="2"
     inkscape:window-width="1499"
     inkscape:window-height="1216"
     id="namedview4"
     showgrid="false"
     inkscape:zoom="1.6234774"
     inkscape:cx="72.683488"
     inkscape:cy="124.42428"
     inkscape:window-x="26"
     inkscape:window-y="23"
     inkscape:window-maximized="0"
     inkscape:current-layer="layer3"
     units="pt"
     showguides="true"
     inkscape:guide-bbox="true"
     fit-margin-top="0"
     fit-margin-left="0"
     fit-margin-right="0"
     fit-margin-bottom="0"
     inkscape:showpageshadow="2"
     inkscape:pagecheckerboard="0"
     inkscape:deskcolor="#d1d1d1"
     inkscape:document-units="pt" /><g
     inkscape:groupmode="layer"
     id="layer3"
     inkscape:label="Background "
     style="display:inline"><rect
       inkscape:label="Square (Red (Munsell))"
       y="6.6613381e-15"
       x="0"
       height="144"
       width="144"
       id="rect2187"
       style="display:none;opacity:1;fill:#f2003c;fill-opacity:1;stroke:none;stroke-width:1.54675;stroke-miterlimit:4;stroke-dasharray:none;stroke-opacity:0.0784314" /><rect
       inkscape:label="Left Side (Crimson)"
       y="6.6613381e-15"
       x="0"
       height="144"
       width="72"
       id="rect976"
       style="display:none;opacity:1;fill:#df0038;fill-opacity:1;stroke:none;stroke-width:1.09372;stroke-miterlimit:4;stroke-dasharray:none;stroke-opacity:0.0784314" /><g
       id="g18"
       style="display:inline"
       inkscape:label="Rounded Rectangle"><rect
         style="display:inline;fill:#f2003c;fill-opacity:1;stroke-width:2.66667"
         id="rect1"
         width="96"
         height="96"
         x="24"
         y="24"
         rx="16.842667"
         ry="16.842667"
         inkscape:label="Rounded Rectangle 72 / 12.632" /><path
         id="path18"
         style="display:inline;opacity:1;fill:#df0038;fill-opacity:1;stroke-width:0.105827"
         d="m 40.842668,24 h 31.157337 v 96.00001 H 40.842668 c -9.330838,0 -16.842667,-7.51183 -16.842667,-16.84267 V 40.84266 C 24.000001,31.51183 31.51183,24 40.842668,24 Z"
         inkscape:label="Left Side"
         sodipodi:nodetypes="sccssss" /></g><g
       id="g20"
       inkscape:label="Circle"
       style="display:none"><path
         id="path20"
         style="display:inline;opacity:1;fill:#f2003c;fill-opacity:1;stroke-width:0.105827"
         d="M 120.00001,72.000008 A 48.000004,48.000004 0 0 1 72.000008,120.00001 48.000004,48.000004 0 0 1 24.000004,72.000008 48.000004,48.000004 0 0 1 72.000008,24.000004 48.000004,48.000004 0 0 1 120.00001,72.000008 Z"
         inkscape:label="Circle 72"
         inkscape:export-filename="trackbook-app-icon-current.png"
         inkscape:export-xdpi="600"
         inkscape:export-ydpi="600" /><path
         id="path19"
         style="display:inline;opacity:1;fill:#df0038;stroke-width:0.105827"
         d="m 72.000008,120.00001 c -26.509669,0 -48.000003,-21.490333 -48.000004,-48.000002 0,-26.50967 21.490334,-48.000004 48.000004,-48.000004 z"
         sodipodi:nodetypes="cscc"
         inkscape:label="Left Side" /></g></g><g
     id="g17"
     inkscape:label="Book Pages"
     transform="matrix(1.3333333,0,0,-1.3333333,-14,158.00002)"
     style="display:inline"
     inkscape:groupmode="layer"><path
       id="path12"
       style="display:inline;opacity:1;fill:#848484;fill-opacity:1;stroke-width:0.0793703"
       d="m 44.166508,-81.484879 c -1.000665,0.03878 -1.753418,0.860549 -1.753418,2.011231 v 28.971683 c 0,1.315169 0.982989,2.561104 2.195801,2.783203 l 6.679688,1.223145 9.515626,1.741699 2.195801,0.402832 h 3 l 11.711427,-2.144531 6.679688,-1.223145 c 1.212722,-0.222128 2.195801,-1.468035 2.195801,-2.783203 v -28.971683 c 0,-1.150682 -0.752821,-1.97245 -1.753418,-2.011231 -0.142942,-0.0055 -0.290795,0.0045 -0.442383,0.03223 l -6.679688,1.223145 -9.515626,1.743164 -2.195801,0.402832 h -3 l -11.711427,-2.145996 -6.679688,-1.223145 c -0.151601,-0.02776 -0.29943,-0.03777 -0.442383,-0.03223 z"
       transform="scale(0.99999999,-0.99999999)"
       inkscape:label="More Pages" /><path
       d="m 0,0 -64.936,-11.863 -92.508,-16.901 -21.35,-3.901 V -55.757 -336.726 -359.82 L -64.936,-339.017 0,-327.156 c 11.79,2.155 21.348,14.24 21.348,26.995 V -19.193 C 21.348,-6.439 11.79,2.154 0,0"
       style="display:inline;fill:#ffffff;fill-opacity:1;fill-rule:nonzero;stroke:none"
       id="path13"
       inkscape:connector-curvature="0"
       inkscape:label="Page Right"
       transform="matrix(0.1028593,0,0,0.10311016,82.890662,82.952171)" /><path
       d="m 0,0 v 23.093 0 l -113.858,20.802 v 0 l -64.935,11.862 c -11.791,2.154 -21.349,-6.439 -21.349,-19.193 v -280.967 c 0,-12.755 9.558,-24.841 21.349,-26.995 l 64.935,-11.862 92.51,-16.9 L 0,-304.062 v 23.093 z"
       style="display:inline;fill:#ffffff;fill-opacity:1;fill-rule:nonzero;stroke:none"
       id="path15"
       inkscape:connector-curvature="0"
       inkscape:label="Page Left"
       transform="matrix(0.1028593,0,0,0.10311016,64.500047,77.203027)" /></g><g
     inkscape:groupmode="layer"
     style="display:none"
     transform="matrix(1.3333332,0,0,-1.3333332,-13.999999,158.00001)"
     inkscape:label="Map"
     id="g1078"><path
       inkscape:label="Meaddow Right"
       inkscape:connector-curvature="0"
       id="path1030"
       style="display:inline;fill:#fafafa;fill-opacity:1;fill-rule:nonzero;stroke:none"
       d="M 0,0 -5.448,1.597 V -29.621 -52.715 L 89.298,-35.404 25.462,-7.977 Z"
       transform="matrix(0.1028593,0,0,0.10311016,65.060445,51.286525)" /><path
       inkscape:label="House Right"
       inkscape:connector-curvature="0"
       id="path1034"
       style="display:inline;fill:#fafafa;fill-opacity:1;fill-rule:nonzero;stroke:none"
       d="M 0,0 48.7,5.771 46.365,-33.867 -2.112,-38.513 Z"
       transform="matrix(0.1028593,0,0,0.10311016,73.96983,67.019084)" /><path
       inkscape:label="Small Street Right"
       inkscape:connector-curvature="0"
       id="path1038"
       style="display:inline;fill:#fafafa;fill-opacity:1;fill-rule:nonzero;stroke:none"
       d="M 0,0 -40.381,-11.812 V -33.219 L 12.81,-16.711 98.737,8.416 159.761,26.475 V 47.6 L 99.092,29.842 Z"
       transform="matrix(0.1028593,0,0,0.10311016,68.653598,74.014912)" /><path
       inkscape:label="Street Right"
       inkscape:connector-curvature="0"
       id="path1042"
       style="display:inline;fill:#fafafa;fill-opacity:1;fill-rule:nonzero;stroke:none"
       d="m 0,0 c 0.149,0.047 0.302,0.094 0.453,0.144 3.876,1.349 7.409,3.765 10.305,6.87 0.006,0.006 0.012,0.013 0.017,0.018 0.229,0.246 0.451,0.497 0.672,0.75 0.032,0.039 0.071,0.078 0.104,0.118 0.181,0.211 0.355,0.427 0.532,0.644 0.068,0.086 0.14,0.169 0.208,0.255 l -36.795,18.08 -48.389,19.835 -54.086,20.332 -54.613,17.858 V 45.735 l 41.805,-14.512 64.579,-23.229 34.887,-15.564 37.523,6.854 c 0.735,0.136 1.465,0.31 2.182,0.519 C -0.408,-0.137 -0.207,-0.066 0,0"
       transform="matrix(0.1028593,0,0,0.10311016,83.178452,49.2929)" /><path
       inkscape:label="Meaddow Left"
       inkscape:connector-curvature="0"
       id="path1058"
       style="display:inline;fill:#fafafa;fill-opacity:1;fill-rule:nonzero;stroke:none"
       d="m 0,0 -59.264,39.026 -20.014,11.354 -47.144,24.371 -24.24,12.727 -49.146,23.051 V 1.236 c 0.442,-2.782 1.319,-5.482 2.547,-7.996 0.003,-0.009 0.007,-0.013 0.011,-0.02 0.303,-0.62 0.628,-1.23 0.973,-1.824 0.008,-0.014 0.017,-0.029 0.025,-0.042 1.039,-1.786 2.26,-3.455 3.629,-4.968 0.025,-0.026 0.048,-0.052 0.072,-0.079 0.432,-0.474 0.882,-0.931 1.342,-1.372 0.05,-0.05 0.101,-0.096 0.151,-0.145 0.456,-0.43 0.923,-0.845 1.404,-1.24 0.051,-0.043 0.104,-0.083 0.155,-0.125 0.495,-0.403 1,-0.787 1.518,-1.15 0.016,-0.01 0.031,-0.02 0.046,-0.031 0.519,-0.361 1.051,-0.7 1.592,-1.021 0.038,-0.021 0.076,-0.047 0.115,-0.07 0.523,-0.306 1.058,-0.589 1.598,-0.854 0.084,-0.039 0.167,-0.081 0.25,-0.121 0.527,-0.25 1.064,-0.482 1.606,-0.691 0.096,-0.037 0.191,-0.071 0.286,-0.107 0.55,-0.204 1.105,-0.391 1.668,-0.551 0.075,-0.021 0.153,-0.039 0.227,-0.062 0.594,-0.161 1.194,-0.303 1.8,-0.414 l 64.935,-11.862 92.51,-16.9 L 0,-54.312 v 23.094 z"
       transform="matrix(0.1028593,0,0,0.10311016,64.500047,51.451161)" /><path
       inkscape:label="Small Street Left"
       inkscape:connector-curvature="0"
       id="path1062"
       style="display:inline;fill:#fafafa;fill-opacity:1;fill-rule:nonzero;stroke:none"
       d="m 0,0 7.119,-0.392 v 21.407 l -6.942,0.506 -85.215,5.369 -51.059,-12.226 -26.151,-25.628 -2.846,-10.257 18.679,-8.993 1.602,6.13 19.213,18.164 43.23,12.116 z"
       transform="matrix(0.1028593,0,0,0.10311016,63.767781,70.630156)" /><path
       inkscape:label="Street Left"
       inkscape:connector-curvature="0"
       id="path1066"
       style="display:inline;fill:#fafafa;fill-opacity:1;fill-rule:nonzero;stroke:none"
       d="M 0,0 70.627,-42.731 98.915,-62.89 v 39.169 l -0.89,0.617 L 52.126,6.45 10.853,31.117 -55.15,70.119 l -18.145,8.895 -27.932,9.367 V 51.063 l 30.243,-9.612 z"
       transform="matrix(0.1028593,0,0,0.10311016,54.325719,60.493242)" /></g><g
     id="g1055"
     inkscape:label="Shaddow"
     transform="matrix(1.3333331,0,0,-1.3333331,-13.999998,158)"
     style="display:inline"
     inkscape:groupmode="layer"><path
       inkscape:label="Shadow Right"
       inkscape:connector-curvature="0"
       id="path1035"
       style="display:inline;opacity:0.15;fill:#c0c0c0;fill-opacity:1;fill-rule:nonzero;stroke:none"
       d="M -178.794,-32.665 V -55.757 -336.726 -359.82 L -64.936,-339.017 0,-327.156 c 11.79,2.155 21.348,14.24 21.348,26.995"
       sodipodi:nodetypes="ccccccc"
       transform="matrix(0.1028593,0,0,0.10311016,82.890662,82.952171)" /><path
       inkscape:label="Shadow Left"
       inkscape:connector-curvature="0"
       id="path1047"
       style="display:inline;opacity:0.72;fill:#c0c0c0;fill-opacity:1;fill-rule:nonzero;stroke:none"
       d="m 0,0 v 23.093 0 l -113.858,20.802 v 0 l -64.935,11.862 c -11.791,2.154 -21.349,-6.439 -21.349,-19.193 v -280.967 c 0,-12.755 9.558,-24.841 21.349,-26.995 l 64.935,-11.862 92.51,-16.9 L 0,-304.062 v 23.093 z"
       transform="matrix(0.1028593,0,0,0.10311016,64.500047,77.203027)" /></g><g
     inkscape:groupmode="layer"
     id="g923"
     inkscape:label="Stencil"
     style="display:none"
     transform="matrix(3.7795272,0,0,3.7795272,-3.4999995e-7,-2.7166656e-6)"><path
       id="rect8"
       style="display:inline;opacity:1;fill:#ffffff;fill-opacity:1;stroke-width:0.0280001"
       d="M 0,0 V 38.1 H 38.1 V 0 Z m 10.806059,6.3500001 h 16.487883 c 2.468781,0 4.456058,1.9872775 4.456058,4.4560589 V 27.293942 C 31.75,29.762723 29.762723,31.75 27.293942,31.75 H 10.806059 c -2.4687814,0 -4.4560589,-1.987277 -4.4560589,-4.456058 V 10.806059 c 0,-2.4687814 1.9872775,-4.4560589 4.4560589,-4.4560589 z"
       inkscape:label="Rounded Rectangle 72 / 12.632" /><path
       id="rect9"
       style="display:none;opacity:1;fill:#ffffff;fill-opacity:1;stroke-width:0.0280001"
       d="M 0,0 V 38.1 H 38.1 V 0 Z M 19.05,6.3500001 A 12.7,12.7 0 0 1 31.75,19.05 12.7,12.7 0 0 1 19.05,31.75 12.7,12.7 0 0 1 6.3500001,19.05 12.7,12.7 0 0 1 19.05,6.3500001 Z"
       inkscape:label="Circle 72" /></g><g
     inkscape:groupmode="layer"
     id="layer1"
     inkscape:label="Save Zones"
     style="display:none"
     transform="scale(3.7795275)"><circle
       style="display:none;opacity:0.13;fill:#ff71ff;fill-opacity:1;stroke-width:0.39692"
       id="path846"
       cx="19.050001"
       cy="19.050001"
       r="11.641666"
       inkscape:label="Circle 66pt" /><rect
       style="display:none;opacity:0.35;fill:#ff71ff;fill-opacity:1;stroke-width:0.260222"
       id="rect848"
       width="25.4"
       height="25.4"
       x="6.3500004"
       y="6.3500004"
       inkscape:label="Rectangle 72pt"
       inkscape:export-filename="transistor-app-icon-current.png"
       inkscape:export-xdpi="512"
       inkscape:export-ydpi="512" /></g></svg>
